{
  "project_info": {
    "project_number": "172950645870",
    "project_id": "test-cd497",
    "storage_bucket": "test-cd497.appspot.com"
  },
  "client": [
    {
      "client_info": {
        "mobilesdk_app_id": "1:172950645870:android:8722fbdcd26f905d458a7f",
        "android_client_info": {
          "package_name": "com.Nerd.ProjectBase"
        }
      },
      "oauth_client": [
        {
          "client_id": "172950645870-ajdtnb1jk34odnl9maqm1l3uao42vcko.apps.googleusercontent.com",
          "client_type": 3
        }
      ],
      "api_key": [
        {
          "current_key": "AIzaSyDh6sHw_zm9UGuymwIcogDPor32IEt9lMo"
        }
      ],
      "services": {
        "appinvite_service": {
          "other_platform_oauth_client": [
            {
              "client_id": "172950645870-ajdtnb1jk34odnl9maqm1l3uao42vcko.apps.googleusercontent.com",
              "client_type": 3
            }
          ]
        }
      }
    }
  ],
  "configuration_version": "1"
}